module github.com/sagernet/sing-box

go 1.20

require (
	berty.tech/go-libtor v1.0.385
	github.com/caddyserver/certmagic v0.20.0
	github.com/cloudflare/circl v1.3.7
	github.com/cretz/bine v0.2.0
	github.com/fsnotify/fsnotify v1.7.0
	github.com/go-chi/chi/v5 v5.0.11
	github.com/go-chi/cors v1.2.1
	github.com/go-chi/render v1.0.3
	github.com/gofrs/uuid/v5 v5.0.0
	github.com/insomniacslk/dhcp v0.0.0-20231206064809-8c70d406f6d2
	github.com/libdns/alidns v1.0.3
	github.com/libdns/cloudflare v0.1.0
	github.com/logrusorgru/aurora v2.0.3+incompatible
	github.com/mholt/acmez v1.2.0
	github.com/miekg/dns v1.1.58
	github.com/ooni/go-libtor v1.1.8
	github.com/oschwald/maxminddb-golang v1.12.0
	github.com/sagernet/bbolt v0.0.0-20231014093535-ea5cb2fe9f0a
	github.com/sagernet/cloudflare-tls v0.0.0-20231208171750-a4483c1b7cd1
	github.com/sagernet/gomobile v0.1.1
	github.com/sagernet/gvisor v0.0.0-20240214044702-a3d61928a32f
	github.com/sagernet/quic-go v0.41.0-beta.2
	github.com/sagernet/reality v0.0.0-20230406110435-ee17307e7691
	github.com/sagernet/sing v0.3.2-beta.1
	github.com/sagernet/sing-dns v0.2.0-beta.6
	github.com/sagernet/sing-mux v0.2.0
	github.com/sagernet/sing-quic v0.1.9-beta.1
	github.com/sagernet/sing-shadowsocks v0.2.6
	github.com/sagernet/sing-shadowsocks2 v0.2.0
	github.com/sagernet/sing-shadowtls v0.1.4
	github.com/sagernet/sing-tun v0.2.2-beta.3
	github.com/sagernet/sing-vmess v0.1.8
	github.com/sagernet/smux v0.0.0-20231208180855-7041f6ea79e7
	github.com/sagernet/tfo-go v0.0.0-20231209031829-7b5343ac1dc6
	github.com/sagernet/utls v1.5.4
	github.com/sagernet/wireguard-go v0.0.0-20231215174105-89dec3b2f3e8
	github.com/sagernet/ws v0.0.0-20231204124109-acfe8907c854
	github.com/spf13/cobra v1.8.0
	github.com/stretchr/testify v1.8.4
	go.uber.org/zap v1.26.0
	go4.org/netipx v0.0.0-20231129151722-fdeea329fbba
	golang.org/x/crypto v0.19.0
	golang.org/x/net v0.21.0
	golang.org/x/sys v0.17.0
	golang.zx2c4.com/wireguard/wgctrl v0.0.0-20230429144221-925a1e7659e6
	google.golang.org/grpc v1.60.1
	google.golang.org/protobuf v1.32.0
	howett.net/plist v1.0.1
)

//replace github.com/sagernet/sing => ../sing

require (
	github.com/ajg/form v1.5.1 // indirect
	github.com/andybalholm/brotli v1.0.6 // indirect
	github.com/davecgh/go-spew v1.1.1 // indirect
	github.com/gaukas/godicttls v0.0.4 // indirect
	github.com/go-ole/go-ole v1.3.0 // indirect
	github.com/go-task/slim-sprig v0.0.0-20230315185526-52ccab3ef572 // indirect
	github.com/gobwas/httphead v0.1.0 // indirect
	github.com/gobwas/pool v0.2.1 // indirect
	github.com/golang/protobuf v1.5.3 // indirect
	github.com/google/btree v1.1.2 // indirect
	github.com/google/pprof v0.0.0-20231101202521-4ca4178f5c7a // indirect
	github.com/hashicorp/yamux v0.1.1 // indirect
	github.com/inconshreveable/mousetrap v1.1.0 // indirect
	github.com/josharian/native v1.1.0 // indirect
	github.com/klauspost/compress v1.17.4 // indirect
	github.com/klauspost/cpuid/v2 v2.2.5 // indirect
	github.com/libdns/libdns v0.2.1 // indirect
	github.com/niemeyer/pretty v0.0.0-20200227124842-a10e7caefd8e // indirect
	github.com/onsi/ginkgo/v2 v2.9.7 // indirect
	github.com/pierrec/lz4/v4 v4.1.14 // indirect
	github.com/pmezard/go-difflib v1.0.0 // indirect
	github.com/quic-go/qpack v0.4.0 // indirect
	github.com/quic-go/qtls-go1-20 v0.4.1 // indirect
	github.com/sagernet/netlink v0.0.0-20220905062125-8043b4a9aa97 // indirect
	github.com/scjalliance/comshim v0.0.0-20230315213746-5e51f40bd3b9 // indirect
	github.com/spf13/pflag v1.0.5 // indirect
	github.com/u-root/uio v0.0.0-20230220225925-ffce2a382923 // indirect
	github.com/vishvananda/netns v0.0.0-20211101163701-50045581ed74 // indirect
	github.com/zeebo/blake3 v0.2.3 // indirect
	go.uber.org/multierr v1.11.0 // indirect
	golang.org/x/exp v0.0.0-20240205201215-2c58cdc269a3 // indirect
	golang.org/x/mod v0.14.0 // indirect
	golang.org/x/text v0.14.0 // indirect
	golang.org/x/time v0.5.0 // indirect
	golang.org/x/tools v0.17.0 // indirect
	google.golang.org/genproto/googleapis/rpc v0.0.0-20231002182017-d307bd883b97 // indirect
	gopkg.in/check.v1 v1.0.0-20200227125254-8fa46927fb4f // indirect
	gopkg.in/yaml.v3 v3.0.1 // indirect
	lukechampine.com/blake3 v1.2.1 // indirect
)
